01f1132
0ae845c
0779224
0413559
04d100d
0f10e57
0ccb25a
0bbbd2e
0d2294c
09da93f
04faf0d
07f8d59
09db639
08b3611
0ad360d
0c21707
0cea35c
087b331
09dab29
0bc0945
0638d29
0ac875c
0d42a59
0c93437
05f1c52
0b80c32
036bc50
06a0018
0061d24
0bc9e5d
0239c0f
0c28f4f
0a5231b
0022404
069ab35
0462f18
05f9f0d
0881c4d
09d3143
02a030e
0c33e05
08bab2d
0ce1739
0cb3451
040045a
0b8a559
0892110
06c9437
0d52716
0681950
044b03a
0829244
0e6ad14
0212149
09f384f
093251b
0760802
028284e
088be40
032b231
0aab20c
0a23d50
04e9514
0210006
048853e
0d41737
06f1a27
0b59f30
0901d1f
0302837
046ad46
05f1449
09e3134
016a759
0dab135
0d38702
0d2ae44
0b21905
01e0756
0d9b03a
0b59530
0f19f2e
08f0653
0b0bf19
00e1717
029051e
069bf0d
0870b39
00b2e4a
0448a57
062af13
0a73e18
00ebf26
034ac4e
04c045c
0d1be36
0f92e31
0403655
0c0150d
0891e3f
0460145
01b8b5f
04e1c13
0c10611
0df380c
0b9b44c
02ab70a
04aa00a
0052c40
0e3a900
0a61e5e
0b3852d
02aa721
00d1d1c
025250e
0142714
0d5033c
05d8d50
0dab53e
0d70046
0d3062d
06c090b
08b075c
0753a1c
0be3c3a
02f8320
0c5a128
012a01c
0de1613
0a71843
04b153f
02c850e
01a033d
0989d11
02f3704
0213357
07b0d45
0f7ab0d
0139f24
0db9644
09bb71a
0a6ae0a
0d69f0a
0ceaa4b
065941b
0b12a42
0df8560
068a255
022a945
0150e23
0f39349
0f39a14
02f060b
0463e4b
08c3d28
04b802f
056a240
0561b46
0bb241b
0063e15
007b63b
0621652
0779233
0d2aa3a
02c1c54
02d3549
0f73634
0e53246
09c2814
0d5a456
026a144
0ae0222
0498616
074bf4c
0c08115
031b761
0081426
03e1f2f
0789d22
09c084c
031821e
0aca31a
0f7912f
05c3307
0c8a85c
0be8016
0750a40
04b262e
03b281c
08d8c5d
0448516
0d73038
02b8547
0be070a
072045e
0f02745
0ea8304
0502b61
0871129
03b9a1d
